%YAML 1.1
%TAG !u! tag:unity3d.com,2011:
--- !u!74 &7400000
AnimationClip:
  m_ObjectHideFlags: 0
  m_PrefabParentObject: {fileID: 0}
  m_PrefabInternal: {fileID: 0}
  m_Name: ZhouJump
  serializedVersion: 6
  m_Legacy: 0
  m_Compressed: 0
  m_UseHighQualityCurve: 1
  m_RotationCurves: []
  m_CompressedRotationCurves: []
  m_EulerCurves:
  - curve:
      serializedVersion: 2
      m_Curve:
      - time: 0
        value: {x: 0, y: 0, z: -0.53}
        inSlope: {x: 0, y: 0, z: 216.20001}
        outSlope: {x: 0, y: 0, z: 216.20001}
        tangentMode: 0
      - time: 0.1
        value: {x: 0, y: 0, z: 21.09}
        inSlope: {x: 0, y: 0, z: 54.05001}
        outSlope: {x: 0, y: 0, z: 54.05001}
        tangentMode: 0
      - time: 0.3
        value: {x: 0, y: 0, z: -0.53}
        inSlope: {x: 0, y: 0, z: -108.09999}
        outSlope: {x: 0, y: 0, z: -108.09999}
        tangentMode: 0
      m_PreInfinity: 2
      m_PostInfinity: 2
      m_RotationOrder: 4
    path: ZhouHead
  m_PositionCurves:
  - curve:
      serializedVersion: 2
      m_Curve:
      - time: 0
        value: {x: 0, y: 0, z: 0}
        inSlope: {x: 0, y: -0.40199998, z: 0}
        outSlope: {x: 0, y: -0.40199998, z: 0}
        tangentMode: 0
      - time: 0.1
        value: {x: 0, y: -0.0402, z: 0}
        inSlope: {x: -0.024999999, y: 0.39900005, z: 0}
        outSlope: {x: -0.024999999, y: 0.39900005, z: 0}
        tangentMode: 0
      - time: 0.2
        value: {x: -0.005, y: 0.0798, z: 0}
        inSlope: {x: -0.0000000018626451, y: 0.20100003, z: 0}
        outSlope: {x: -0.0000000018626451, y: 0.20100003, z: 0}
        tangentMode: 0
      - time: 0.3
        value: {x: 0, y: 0, z: 0}
        inSlope: {x: 0.049999993, y: -0.798, z: 0}
        outSlope: {x: 0.049999993, y: -0.798, z: 0}
        tangentMode: 0
      m_PreInfinity: 2
      m_PostInfinity: 2
      m_RotationOrder: 4
    path: ZhouBody
  - curve:
      serializedVersion: 2
      m_Curve:
      - time: 0
        value: {x: 0, y: 0, z: 0}
        inSlope: {x: 0.049999997, y: -0.46199998, z: 0}
        outSlope: {x: 0.049999997, y: -0.46199998, z: 0}
        tangentMode: 0
      - time: 0.1
        value: {x: 0.005, y: -0.0462, z: 0}
        inSlope: {x: 0.005000001, y: 0.40899992, z: 0}
        outSlope: {x: 0.005000001, y: 0.40899992, z: 0}
        tangentMode: 0
      - time: 0.2
        value: {x: 0.001, y: 0.0818, z: 0}
        inSlope: {x: -0.024999999, y: 0.23099998, z: 0}
        outSlope: {x: -0.024999999, y: 0.23099998, z: 0}
        tangentMode: 0
      - time: 0.3
        value: {x: 0, y: 0, z: 0}
        inSlope: {x: -0.01, y: -0.8179999, z: 0}
        outSlope: {x: -0.01, y: -0.8179999, z: 0}
        tangentMode: 0
      m_PreInfinity: 2
      m_PostInfinity: 2
      m_RotationOrder: 4
    path: ZhouHead
  - curve:
      serializedVersion: 2
      m_Curve:
      - time: 0
        value: {x: 0, y: 0, z: 0}
        inSlope: {x: 0.22, y: 0, z: 0}
        outSlope: {x: 0.22, y: 0, z: 0}
        tangentMode: 0
      - time: 0.1
        value: {x: 0.022, y: 0, z: 0}
        inSlope: {x: 0.16499999, y: -0.271, z: 0}
        outSlope: {x: 0.16499999, y: -0.271, z: 0}
        tangentMode: 0
      - time: 0.2
        value: {x: 0.033, y: -0.0542, z: 0}
        inSlope: {x: -0.10999999, y: -0.000000029802322, z: 0}
        outSlope: {x: -0.10999999, y: -0.000000029802322, z: 0}
        tangentMode: 0
      - time: 0.3
        value: {x: 0, y: 0, z: 0}
        inSlope: {x: -0.32999998, y: 0.54199994, z: 0}
        outSlope: {x: -0.32999998, y: 0.54199994, z: 0}
        tangentMode: 0
      m_PreInfinity: 2
      m_PostInfinity: 2
      m_RotationOrder: 4
    path: ZhouFeetL
  - curve:
      serializedVersion: 2
      m_Curve:
      - time: 0
        value: {x: 0, y: 0, z: 0}
        inSlope: {x: -0.65, y: 0, z: 0}
        outSlope: {x: -0.65, y: 0, z: 0}
        tangentMode: 0
      - time: 0.1
        value: {x: -0.065, y: 0, z: 0}
        inSlope: {x: -0.415, y: -0.25599998, z: 0}
        outSlope: {x: -0.415, y: -0.25599998, z: 0}
        tangentMode: 0
      - time: 0.2
        value: {x: -0.083, y: -0.0512, z: 0}
        inSlope: {x: 0.32499996, y: 0, z: 0}
        outSlope: {x: 0.32499996, y: 0, z: 0}
        tangentMode: 0
      - time: 0.3
        value: {x: 0, y: 0, z: 0}
        inSlope: {x: 0.8299999, y: 0.51199996, z: 0}
        outSlope: {x: 0.8299999, y: 0.51199996, z: 0}
        tangentMode: 0
      m_PreInfinity: 2
      m_PostInfinity: 2
      m_RotationOrder: 4
    path: ZhouFeetR
  - curve:
      serializedVersion: 2
      m_Curve:
      - time: 0
        value: {x: 0, y: 0, z: 0}
        inSlope: {x: -0.17999999, y: -0.702, z: 0}
        outSlope: {x: -0.17999999, y: -0.702, z: 0}
        tangentMode: 0
      - time: 0.1
        value: {x: -0.018, y: -0.0702, z: 0}
        inSlope: {x: -0.045, y: -0.17550002, z: 0}
        outSlope: {x: -0.045, y: -0.17550002, z: 0}
        tangentMode: 0
      - time: 0.3
        value: {x: 0, y: 0, z: 0}
        inSlope: {x: 0.08999999, y: 0.35099998, z: 0}
        outSlope: {x: 0.08999999, y: 0.35099998, z: 0}
        tangentMode: 0
      m_PreInfinity: 2
      m_PostInfinity: 2
      m_RotationOrder: 4
    path: ZhouHandL
  - curve:
      serializedVersion: 2
      m_Curve:
      - time: 0
        value: {x: 0, y: 0, z: 0}
        inSlope: {x: -0.16000001, y: -0.522, z: 0}
        outSlope: {x: -0.16000001, y: -0.522, z: 0}
        tangentMode: 0
      - time: 0.1
        value: {x: -0.016, y: -0.0522, z: 0}
        inSlope: {x: -0.040000007, y: -0.13050002, z: 0}
        outSlope: {x: -0.040000007, y: -0.13050002, z: 0}
        tangentMode: 0
      - time: 0.3
        value: {x: 0, y: 0, z: 0}
        inSlope: {x: 0.08, y: 0.26099998, z: 0}
        outSlope: {x: 0.08, y: 0.26099998, z: 0}
        tangentMode: 0
      m_PreInfinity: 2
      m_PostInfinity: 2
      m_RotationOrder: 4
    path: ZhouHandR
  m_ScaleCurves: []
  m_FloatCurves: []
  m_PPtrCurves: []
  m_SampleRate: 1000
  m_WrapMode: 0
  m_Bounds:
    m_Center: {x: 0, y: 0, z: 0}
    m_Extent: {x: 0, y: 0, z: 0}
  m_ClipBindingConstant:
    genericBindings:
    - path: 2345900869
      attribute: 1
      script: {fileID: 0}
      classID: 4
      customType: 0
      isPPtrCurve: 0
    - path: 4152911467
      attribute: 1
      script: {fileID: 0}
      classID: 4
      customType: 0
      isPPtrCurve: 0
    - path: 2231686764
      attribute: 1
      script: {fileID: 0}
      classID: 4
      customType: 0
      isPPtrCurve: 0
    - path: 2131487503
      attribute: 1
      script: {fileID: 0}
      classID: 4
      customType: 0
      isPPtrCurve: 0
    - path: 4089512682
      attribute: 1
      script: {fileID: 0}
      classID: 4
      customType: 0
      isPPtrCurve: 0
    - path: 164511625
      attribute: 1
      script: {fileID: 0}
      classID: 4
      customType: 0
      isPPtrCurve: 0
    - path: 4152911467
      attribute: 4
      script: {fileID: 0}
      classID: 4
      customType: 14
      isPPtrCurve: 0
    pptrCurveMapping: []
  m_AnimationClipSettings:
    serializedVersion: 2
    m_AdditiveReferencePoseClip: {fileID: 0}
    m_AdditiveReferencePoseTime: 0
    m_StartTime: 0
    m_StopTime: 0.3
    m_OrientationOffsetY: 0
    m_Level: 0
    m_CycleOffset: 0
    m_HasAdditiveReferencePose: 0
    m_LoopTime: 1
    m_LoopBlend: 0
    m_LoopBlendOrientation: 0
    m_LoopBlendPositionY: 0
    m_LoopBlendPositionXZ: 0
    m_KeepOriginalOrientation: 0
    m_KeepOriginalPositionY: 1
    m_KeepOriginalPositionXZ: 0
    m_HeightFromFeet: 0
    m_Mirror: 0
  m_EditorCurves:
  - curve:
      serializedVersion: 2
      m_Curve:
      - time: 0
        value: 0
        inSlope: 0
        outSlope: 0
        tangentMode: 10
      - time: 0.1
        value: 0
        inSlope: 0
        outSlope: 0
        tangentMode: 10
      - time: 0.3
        value: 0
        inSlope: 0
        outSlope: 0
        tangentMode: 10
      m_PreInfinity: 2
      m_PostInfinity: 2
      m_RotationOrder: 4
    attribute: localEulerAnglesRaw.x
    path: ZhouHead
    classID: 4
    script: {fileID: 0}
  - curve:
      serializedVersion: 2
      m_Curve:
      - time: 0
        value: 0
        inSlope: 0
        outSlope: 0
        tangentMode: 10
      - time: 0.1
        value: 0
        inSlope: 0
        outSlope: 0
        tangentMode: 10
      - time: 0.3
        value: 0
        inSlope: 0
        outSlope: 0
        tangentMode: 10
      m_PreInfinity: 2
      m_PostInfinity: 2
      m_RotationOrder: 4
    attribute: localEulerAnglesRaw.y
    path: ZhouHead
    classID: 4
    script: {fileID: 0}
  - curve:
      serializedVersion: 2
      m_Curve:
      - time: 0
        value: -0.53
        inSlope: 216.20001
        outSlope: 216.20001
        tangentMode: 10
      - time: 0.1
        value: 21.09
        inSlope: 54.05001
        outSlope: 54.05001
        tangentMode: 10
      - time: 0.3
        value: -0.53
        inSlope: -108.09999
        outSlope: -108.09999
        tangentMode: 10
      m_PreInfinity: 2
      m_PostInfinity: 2
      m_RotationOrder: 4
    attribute: localEulerAnglesRaw.z
    path: ZhouHead
    classID: 4
    script: {fileID: 0}
  - curve:
      serializedVersion: 2
      m_Curve:
      - time: 0
        value: 0
        inSlope: 0
        outSlope: 0
        tangentMode: 10
      - time: 0.1
        value: 0
        inSlope: -0.024999999
        outSlope: -0.024999999
        tangentMode: 10
      - time: 0.2
        value: -0.005
        inSlope: -0.0000000018626451
        outSlope: -0.0000000018626451
        tangentMode: 10
      - time: 0.3
        value: 0
        inSlope: 0.049999993
        outSlope: 0.049999993
        tangentMode: 10
      m_PreInfinity: 2
      m_PostInfinity: 2
      m_RotationOrder: 4
    attribute: m_LocalPosition.x
    path: ZhouBody
    classID: 4
    script: {fileID: 0}
  - curve:
      serializedVersion: 2
      m_Curve:
      - time: 0
        value: 0
        inSlope: -0.40199998
        outSlope: -0.40199998
        tangentMode: 10
      - time: 0.1
        value: -0.0402
        inSlope: 0.39900005
        outSlope: 0.39900005
        tangentMode: 10
      - time: 0.2
        value: 0.0798
        inSlope: 0.20100003
        outSlope: 0.20100003
        tangentMode: 10
      - time: 0.3
        value: 0
        inSlope: -0.798
        outSlope: -0.798
        tangentMode: 10
      m_PreInfinity: 2
      m_PostInfinity: 2
      m_RotationOrder: 4
    attribute: m_LocalPosition.y
    path: ZhouBody
    classID: 4
    script: {fileID: 0}
  - curve:
      serializedVersion: 2
      m_Curve:
      - time: 0
        value: 0
        inSlope: 0
        outSlope: 0
        tangentMode: 10
      - time: 0.1
        value: 0
        inSlope: 0
        outSlope: 0
        tangentMode: 10
      - time: 0.2
        value: 0
        inSlope: 0
        outSlope: 0
        tangentMode: 10
      - time: 0.3
        value: 0
        inSlope: 0
        outSlope: 0
        tangentMode: 10
      m_PreInfinity: 2
      m_PostInfinity: 2
      m_RotationOrder: 4
    attribute: m_LocalPosition.z
    path: ZhouBody
    classID: 4
    script: {fileID: 0}
  - curve:
      serializedVersion: 2
      m_Curve:
      - time: 0
        value: 0
        inSlope: 0.049999997
        outSlope: 0.049999997
        tangentMode: 10
      - time: 0.1
        value: 0.005
        inSlope: 0.005000001
        outSlope: 0.005000001
        tangentMode: 10
      - time: 0.2
        value: 0.001
        inSlope: -0.024999999
        outSlope: -0.024999999
        tangentMode: 10
      - time: 0.3
        value: 0
        inSlope: -0.01
        outSlope: -0.01
        tangentMode: 10
      m_PreInfinity: 2
      m_PostInfinity: 2
      m_RotationOrder: 4
    attribute: m_LocalPosition.x
    path: ZhouHead
    classID: 4
    script: {fileID: 0}
  - curve:
      serializedVersion: 2
      m_Curve:
      - time: 0
        value: 0
        inSlope: -0.46199998
        outSlope: -0.46199998
        tangentMode: 10
      - time: 0.1
        value: -0.0462
        inSlope: 0.40899992
        outSlope: 0.40899992
        tangentMode: 10
      - time: 0.2
        value: 0.0818
        inSlope: 0.23099998
        outSlope: 0.23099998
        tangentMode: 10
      - time: 0.3
        value: 0
        inSlope: -0.8179999
        outSlope: -0.8179999
        tangentMode: 10
      m_PreInfinity: 2
      m_PostInfinity: 2
      m_RotationOrder: 4
    attribute: m_LocalPosition.y
    path: ZhouHead
    classID: 4
    script: {fileID: 0}
  - curve:
      serializedVersion: 2
      m_Curve:
      - time: 0
        value: 0
        inSlope: 0
        outSlope: 0
        tangentMode: 10
      - time: 0.1
        value: 0
        inSlope: 0
        outSlope: 0
        tangentMode: 10
      - time: 0.2
        value: 0
        inSlope: 0
        outSlope: 0
        tangentMode: 10
      - time: 0.3
        value: 0
        inSlope: 0
        outSlope: 0
        tangentMode: 10
      m_PreInfinity: 2
      m_PostInfinity: 2
      m_RotationOrder: 4
    attribute: m_LocalPosition.z
    path: ZhouHead
    classID: 4
    script: {fileID: 0}
  - curve:
      serializedVersion: 2
      m_Curve:
      - time: 0
        value: 0
        inSlope: 0.22
        outSlope: 0.22
        tangentMode: 10
      - time: 0.1
        value: 0.022
        inSlope: 0.16499999
        outSlope: 0.16499999
        tangentMode: 10
      - time: 0.2
        value: 0.033
        inSlope: -0.10999999
        outSlope: -0.10999999
        tangentMode: 10
      - time: 0.3
        value: 0
        inSlope: -0.32999998
        outSlope: -0.32999998
        tangentMode: 10
      m_PreInfinity: 2
      m_PostInfinity: 2
      m_RotationOrder: 4
    attribute: m_LocalPosition.x
    path: ZhouFeetL
    classID: 4
    script: {fileID: 0}
  - curve:
      serializedVersion: 2
      m_Curve:
      - time: 0
        value: 0
        inSlope: 0
        outSlope: 0
        tangentMode: 10
      - time: 0.1
        value: 0
        inSlope: -0.271
        outSlope: -0.271
        tangentMode: 10
      - time: 0.2
        value: -0.0542
        inSlope: -0.000000029802322
        outSlope: -0.000000029802322
        tangentMode: 10
      - time: 0.3
        value: 0
        inSlope: 0.54199994
        outSlope: 0.54199994
        tangentMode: 10
      m_PreInfinity: 2
      m_PostInfinity: 2
      m_RotationOrder: 4
    attribute: m_LocalPosition.y
    path: ZhouFeetL
    classID: 4
    script: {fileID: 0}
  - curve:
      serializedVersion: 2
      m_Curve:
      - time: 0
        value: 0
        inSlope: 0
        outSlope: 0
        tangentMode: 10
      - time: 0.1
        value: 0
        inSlope: 0
        outSlope: 0
        tangentMode: 10
      - time: 0.2
        value: 0
        inSlope: 0
        outSlope: 0
        tangentMode: 10
      - time: 0.3
        value: 0
        inSlope: 0
        outSlope: 0
        tangentMode: 10
      m_PreInfinity: 2
      m_PostInfinity: 2
      m_RotationOrder: 4
    attribute: m_LocalPosition.z
    path: ZhouFeetL
    classID: 4
    script: {fileID: 0}
  - curve:
      serializedVersion: 2
      m_Curve:
      - time: 0
        value: 0
        inSlope: -0.65
        outSlope: -0.65
        tangentMode: 10
      - time: 0.1
        value: -0.065
        inSlope: -0.415
        outSlope: -0.415
        tangentMode: 10
      - time: 0.2
        value: -0.083
        inSlope: 0.32499996
        outSlope: 0.32499996
        tangentMode: 10
      - time: 0.3
        value: 0
        inSlope: 0.8299999
        outSlope: 0.8299999
        tangentMode: 10
      m_PreInfinity: 2
      m_PostInfinity: 2
      m_RotationOrder: 4
    attribute: m_LocalPosition.x
    path: ZhouFeetR
    classID: 4
    script: {fileID: 0}
  - curve:
      serializedVersion: 2
      m_Curve:
      - time: 0
        value: 0
        inSlope: 0
        outSlope: 0
        tangentMode: 10
      - time: 0.1
        value: 0
        inSlope: -0.25599998
        outSlope: -0.25599998
        tangentMode: 10
      - time: 0.2
        value: -0.0512
        inSlope: 0
        outSlope: 0
        tangentMode: 10
      - time: 0.3
        value: 0
        inSlope: 0.51199996
        outSlope: 0.51199996
        tangentMode: 10
      m_PreInfinity: 2
      m_PostInfinity: 2
      m_RotationOrder: 4
    attribute: m_LocalPosition.y
    path: ZhouFeetR
    classID: 4
    script: {fileID: 0}
  - curve:
      serializedVersion: 2
      m_Curve:
      - time: 0
        value: 0
        inSlope: 0
        outSlope: 0
        tangentMode: 10
      - time: 0.1
        value: 0
        inSlope: 0
        outSlope: 0
        tangentMode: 10
      - time: 0.2
        value: 0
        inSlope: 0
        outSlope: 0
        tangentMode: 10
      - time: 0.3
        value: 0
        inSlope: 0
        outSlope: 0
        tangentMode: 10
      m_PreInfinity: 2
      m_PostInfinity: 2
      m_RotationOrder: 4
    attribute: m_LocalPosition.z
    path: ZhouFeetR
    classID: 4
    script: {fileID: 0}
  - curve:
      serializedVersion: 2
      m_Curve:
      - time: 0
        value: 0
        inSlope: -0.17999999
        outSlope: -0.17999999
        tangentMode: 10
      - time: 0.1
        value: -0.018
        inSlope: -0.045
        outSlope: -0.045
        tangentMode: 10
      - time: 0.3
        value: 0
        inSlope: 0.08999999
        outSlope: 0.08999999
        tangentMode: 10
      m_PreInfinity: 2
      m_PostInfinity: 2
      m_RotationOrder: 4
    attribute: m_LocalPosition.x
    path: ZhouHandL
    classID: 4
    script: {fileID: 0}
  - curve:
      serializedVersion: 2
      m_Curve:
      - time: 0
        value: 0
        inSlope: -0.702
        outSlope: -0.702
        tangentMode: 10
      - time: 0.1
        value: -0.0702
        inSlope: -0.17550002
        outSlope: -0.17550002
        tangentMode: 10
      - time: 0.3
        value: 0
        inSlope: 0.35099998
        outSlope: 0.35099998
        tangentMode: 10
      m_PreInfinity: 2
      m_PostInfinity: 2
      m_RotationOrder: 4
    attribute: m_LocalPosition.y
    path: ZhouHandL
    classID: 4
    script: {fileID: 0}
  - curve:
      serializedVersion: 2
      m_Curve:
      - time: 0
        value: 0
        inSlope: 0
        outSlope: 0
        tangentMode: 10
      - time: 0.1
        value: 0
        inSlope: 0
        outSlope: 0
        tangentMode: 10
      - time: 0.3
        value: 0
        inSlope: 0
        outSlope: 0
        tangentMode: 10
      m_PreInfinity: 2
      m_PostInfinity: 2
      m_RotationOrder: 4
    attribute: m_LocalPosition.z
    path: ZhouHandL
    classID: 4
    script: {fileID: 0}
  - curve:
      serializedVersion: 2
      m_Curve:
      - time: 0
        value: 0
        inSlope: -0.16000001
        outSlope: -0.16000001
        tangentMode: 10
      - time: 0.1
        value: -0.016
        inSlope: -0.040000007
        outSlope: -0.040000007
        tangentMode: 10
      - time: 0.3
        value: 0
        inSlope: 0.08
        outSlope: 0.08
        tangentMode: 10
      m_PreInfinity: 2
      m_PostInfinity: 2
      m_RotationOrder: 4
    attribute: m_LocalPosition.x
    path: ZhouHandR
    classID: 4
    script: {fileID: 0}
  - curve:
      serializedVersion: 2
      m_Curve:
      - time: 0
        value: 0
        inSlope: -0.522
        outSlope: -0.522
        tangentMode: 10
      - time: 0.1
        value: -0.0522
        inSlope: -0.13050002
        outSlope: -0.13050002
        tangentMode: 10
      - time: 0.3
        value: 0
        inSlope: 0.26099998
        outSlope: 0.26099998
        tangentMode: 10
      m_PreInfinity: 2
      m_PostInfinity: 2
      m_RotationOrder: 4
    attribute: m_LocalPosition.y
    path: ZhouHandR
    classID: 4
    script: {fileID: 0}
  - curve:
      serializedVersion: 2
      m_Curve:
      - time: 0
        value: 0
        inSlope: 0
        outSlope: 0
        tangentMode: 10
      - time: 0.1
        value: 0
        inSlope: 0
        outSlope: 0
        tangentMode: 10
      - time: 0.3
        value: 0
        inSlope: 0
        outSlope: 0
        tangentMode: 10
      m_PreInfinity: 2
      m_PostInfinity: 2
      m_RotationOrder: 4
    attribute: m_LocalPosition.z
    path: ZhouHandR
    classID: 4
    script: {fileID: 0}
  m_EulerEditorCurves:
  - curve:
      serializedVersion: 2
      m_Curve: []
      m_PreInfinity: 2
      m_PostInfinity: 2
      m_RotationOrder: 4
    attribute: m_LocalEulerAngles.x
    path: ZhouHead
    classID: 4
    script: {fileID: 0}
  - curve:
      serializedVersion: 2
      m_Curve: []
      m_PreInfinity: 2
      m_PostInfinity: 2
      m_RotationOrder: 4
    attribute: m_LocalEulerAngles.y
    path: ZhouHead
    classID: 4
    script: {fileID: 0}
  - curve:
      serializedVersion: 2
      m_Curve: []
      m_PreInfinity: 2
      m_PostInfinity: 2
      m_RotationOrder: 4
    attribute: m_LocalEulerAngles.z
    path: ZhouHead
    classID: 4
    script: {fileID: 0}
  m_HasGenericRootTransform: 0
  m_HasMotionFloatCurves: 0
  m_GenerateMotionCurves: 0
  m_Events: []
